{
  "docs": [
    {
      "_id": 35117,
      "id_country": 122,
      "id_league": 129,
      "id_season": 114,
      "id_stage": 292,
      "fixture_status": "Finished",
      "fixture_status_short": "FIN",
      "game_ended_at": "2003-06-17T21:53:14.000Z",
      "id_team_season_away": 3081,
      "id_team_season_home": 3075,
      "number_goal_team_away": 0,
      "number_goal_team_home": 0,
      "round": "37",
      "schedule_date": "2000-05-14T17:00:00.000Z",
      "second_half_started_at": "2003-06-17T21:37:24.000Z",
      "stadium": "Estadio Olimpic Montjuic",
      "team_season_away_name": "Athletic Bilbao",
      "team_season_home_name": "Espanyol"
    },
    {
      "_id": 35118,
      "id_country": 122,
      "id_league": 129,
      "id_season": 114,
      "id_stage": 292,
      "fixture_status": "Finished",
      "fixture_status_short": "FIN",
      "game_ended_at": "2003-06-17T21:19:22.000Z",
      "id_team_season_away": 3071,
      "id_team_season_home": 3074,
      "number_goal_team_away": 3,
      "number_goal_team_home": 0,
      "round": "36",
      "schedule_date": "2000-05-07T17:00:00.000Z",
      "second_half_ended_at": "2003-06-17T22:02:32.000Z",
      "second_half_started_at": "2003-06-17T21:02:32.000Z",
      "team_season_away_name": "Real Betis",
      "team_season_home_name": "Valladolid"
    },
    {
      "_id": 35113,
      "id_country": 122,
      "id_league": 129,
      "id_season": 114,
      "id_stage": 292,
      "fixture_status": "Finished",
      "fixture_status_short": "FIN",
      "game_ended_at": "2003-06-17T21:19:22.000Z",
      "id_team_season_away": 3086,
      "id_team_season_home": 3079,
      "number_goal_team_away": 2,
      "number_goal_team_home": 2,
      "round": "36",
      "schedule_date": "2000-05-07T18:30:00.000Z",
      "second_half_ended_at": "2003-06-17T22:02:32.000Z",
      "second_half_started_at": "2003-06-17T21:02:32.000Z",
      "stadium": "Estadio Riazor",
      "team_season_away_name": "Zaragoza",
      "team_season_home_name": "Deportivo La Coruna"
    },
    {
      "_id": 35130,
      "id_country": 122,
      "id_league": 129,
      "id_season": 114,
      "id_stage": 292,
      "fixture_status": "Finished",
      "fixture_status_short": "FIN",
      "game_ended_at": "2003-06-17T15:24:39.000Z",
      "id_team_season_away": 3077,
      "id_team_season_home": 3081,
      "number_goal_team_away": 0,
      "number_goal_team_home": 1,
      "round": "34",
      "schedule_date": "2000-04-22T19:30:00.000Z",
      "second_half_ended_at": "2003-06-17T15:56:22.000Z",
      "second_half_started_at": "2003-06-17T14:56:22.000Z",
      "stadium": "Estadio San Mamés",
      "team_season_away_name": "Celta Vigo",
      "team_season_home_name": "Athletic Bilbao"
    },
    {
      "_id": 35139,
      "id_country": 122,
      "id_league": 129,
      "id_season": 114,
      "id_stage": 292,
      "fixture_status": "Finished",
      "fixture_status_short": "FIN",
      "game_ended_at": "2003-06-17T21:19:22.000Z",
      "id_team_season_away": 3077,
      "id_team_season_home": 3087,
      "number_goal_team_away": 1,
      "number_goal_team_home": 0,
      "round": "36",
      "schedule_date": "2000-05-07T17:00:00.000Z",
      "second_half_ended_at": "2003-06-17T22:02:32.000Z",
      "second_half_started_at": "2003-06-17T21:02:32.000Z",
      "stadium": "Estadio La Rosaleda",
      "team_season_away_name": "Celta Vigo",
      "team_season_home_name": "Malaga"
    },
    {
      "_id": 35132,
      "id_country": 122,
      "id_league": 129,
      "id_season": 114,
      "id_stage": 292,
      "fixture_status": "Finished",
      "fixture_status_short": "FIN",
      "game_ended_at": "2003-06-17T14:46:10.000Z",
      "id_team_season_away": 3081,
      "id_team_season_home": 3086,
      "number_goal_team_away": 0,
      "number_goal_team_home": 0,
      "round": "35",
      "schedule_date": "2000-04-30T18:00:00.000Z",
      "second_half_started_at": "2003-06-17T14:33:55.000Z",
      "stadium": "Estadio la Romareda",
      "team_season_away_name": "Athletic Bilbao",
      "team_season_home_name": "Zaragoza"
    },
    {
      "_id": 35121,
      "id_country": 122,
      "id_league": 129,
      "id_season": 114,
      "id_stage": 292,
      "fixture_status": "Finished",
      "fixture_status_short": "FIN",
      "game_ended_at": "2003-06-17T21:45:57.000Z",
      "id_team_season_away": 3072,
      "id_team_season_home": 3088,
      "number_goal_team_away": 2,
      "number_goal_team_home": 1,
      "round": "38",
      "schedule_date": "2000-05-19T20:00:00.000Z",
      "second_half_ended_at": "2003-06-17T22:02:21.000Z",
      "second_half_started_at": "2003-06-17T21:02:21.000Z",
      "stadium": "Iberostar Estadio",
      "team_season_away_name": "Atletico Madrid",
      "team_season_home_name": "Mallorca"
    },
    {
      "_id": 35133,
      "id_country": 122,
      "id_league": 129,
      "id_season": 114,
      "id_stage": 292,
      "fixture_status": "Finished",
      "fixture_status_short": "FIN",
      "game_ended_at": "2003-06-17T21:45:57.000Z",
      "id_team_season_away": 3083,
      "id_team_season_home": 3073,
      "number_goal_team_away": 3,
      "number_goal_team_home": 2,
      "round": "38",
      "schedule_date": "2000-05-19T20:00:00.000Z",
      "second_half_ended_at": "2003-06-17T22:02:21.000Z",
      "second_half_started_at": "2003-06-17T21:02:21.000Z",
      "stadium": "Estadio R. Sanchez Pizjuan",
      "team_season_away_name": "Rayo Vallecano",
      "team_season_home_name": "Sevilla"
    },
    {
      "_id": 35156,
      "id_country": 122,
      "id_league": 129,
      "id_season": 114,
      "id_stage": 292,
      "fixture_status": "Finished",
      "fixture_status_short": "FIN",
      "game_ended_at": "2003-06-17T21:19:22.000Z",
      "id_team_season_away": 3072,
      "id_team_season_home": 3084,
      "number_goal_team_away": 2,
      "number_goal_team_home": 2,
      "round": "36",
      "schedule_date": "2000-05-07T17:00:00.000Z",
      "second_half_ended_at": "2003-06-17T22:02:32.000Z",
      "second_half_started_at": "2003-06-17T21:02:32.000Z",
      "team_season_away_name": "Atletico Madrid",
      "team_season_home_name": "Real Oviedo"
    },
    {
      "_id": 35182,
      "id_country": 122,
      "id_league": 129,
      "id_season": 114,
      "id_stage": 292,
      "fixture_status": "Finished",
      "fixture_status_short": "FIN",
      "game_ended_at": "2003-06-17T15:23:04.000Z",
      "id_team_season_away": 3075,
      "id_team_season_home": 3074,
      "number_goal_team_away": 0,
      "number_goal_team_home": 1,
      "round": "34",
      "schedule_date": "2000-04-22T17:00:00.000Z",
      "second_half_ended_at": "2003-06-17T15:56:22.000Z",
      "second_half_started_at": "2003-06-17T14:56:22.000Z",
      "team_season_away_name": "Espanyol",
      "team_season_home_name": "Valladolid"
    },
    {
      "_id": 35109,
      "id_country": 122,
      "id_league": 129,
      "id_season": 114,
      "id_stage": 292,
      "fixture_status": "Finished",
      "fixture_status_short": "FIN",
      "game_ended_at": "2003-06-17T21:45:57.000Z",
      "id_team_season_away": 3075,
      "id_team_season_home": 3079,
      "number_goal_team_away": 0,
      "number_goal_team_home": 2,
      "round": "38",
      "schedule_date": "2000-05-19T20:00:00.000Z",
      "second_half_ended_at": "2003-06-17T22:02:21.000Z",
      "second_half_started_at": "2003-06-17T21:02:21.000Z",
      "stadium": "Estadio Riazor",
      "team_season_away_name": "Espanyol",
      "team_season_home_name": "Deportivo La Coruna"
    },
    {
      "_id": 35151,
      "id_country": 122,
      "id_league": 129,
      "id_season": 114,
      "id_stage": 292,
      "fixture_status": "Finished",
      "fixture_status_short": "FIN",
      "game_ended_at": "2003-06-17T15:24:09.000Z",
      "id_team_season_away": 3073,
      "id_team_season_home": 3080,
      "number_goal_team_away": 0,
      "number_goal_team_home": 2,
      "round": "34",
      "schedule_date": "2000-04-22T19:00:00.000Z",
      "second_half_ended_at": "2003-06-17T15:56:22.000Z",
      "second_half_started_at": "2003-06-17T14:56:22.000Z",
      "stadium": "Camp Nou",
      "team_season_away_name": "Sevilla",
      "team_season_home_name": "Barcelona"
    },
    {
      "_id": 35106,
      "id_country": 122,
      "id_league": 129,
      "id_season": 114,
      "id_stage": 292,
      "fixture_status": "Finished",
      "fixture_status_short": "FIN",
      "game_ended_at": "2003-06-17T21:45:57.000Z",
      "id_team_season_away": 3076,
      "id_team_season_home": 3081,
      "number_goal_team_away": 1,
      "number_goal_team_home": 2,
      "round": "38",
      "schedule_date": "2000-05-19T20:00:00.000Z",
      "second_half_ended_at": "2003-06-17T22:02:21.000Z",
      "second_half_started_at": "2003-06-17T21:02:21.000Z",
      "stadium": "Estadio San Mamés",
      "team_season_away_name": "Alaves",
      "team_season_home_name": "Athletic Bilbao"
    },
    {
      "_id": 35119,
      "id_country": 122,
      "id_league": 129,
      "id_season": 114,
      "id_stage": 292,
      "fixture_status": "Finished",
      "fixture_status_short": "FIN",
      "game_ended_at": "2003-06-17T14:46:10.000Z",
      "id_team_season_away": 3079,
      "id_team_season_home": 3077,
      "number_goal_team_away": 1,
      "number_goal_team_home": 2,
      "round": "35",
      "schedule_date": "2000-04-30T18:30:00.000Z",
      "second_half_ended_at": "2003-06-17T15:33:55.000Z",
      "second_half_started_at": "2003-06-17T14:33:55.000Z",
      "team_season_away_name": "Deportivo La Coruna",
      "team_season_home_name": "Celta Vigo"
    },
    {
      "_id": 35174,
      "id_country": 122,
      "id_league": 129,
      "id_season": 114,
      "id_stage": 292,
      "fixture_status": "Finished",
      "fixture_status_short": "FIN",
      "game_ended_at": "2003-06-17T14:13:45.000Z",
      "id_team_season_away": 3071,
      "id_team_season_home": 3086,
      "number_goal_team_away": 0,
      "number_goal_team_home": 1,
      "round": "31",
      "schedule_date": "2000-04-02T18:00:00.000Z",
      "second_half_ended_at": "2003-06-17T15:07:14.000Z",
      "second_half_started_at": "2003-06-17T14:07:14.000Z",
      "stadium": "Estadio la Romareda",
      "team_season_away_name": "Real Betis",
      "team_season_home_name": "Zaragoza"
    },
    {
      "_id": 35140,
      "id_country": 122,
      "id_league": 129,
      "id_season": 114,
      "id_stage": 292,
      "fixture_status": "Finished",
      "fixture_status_short": "FIN",
      "game_ended_at": "2003-06-18T09:19:05.000Z",
      "id_team_season_away": 3070,
      "id_team_season_home": 3077,
      "number_goal_team_away": 0,
      "number_goal_team_home": 0,
      "round": "33",
      "schedule_date": "2000-04-16T17:00:00.000Z",
      "second_half_started_at": "2003-06-18T09:18:06.000Z",
      "team_season_away_name": "Numancia",
      "team_season_home_name": "Celta Vigo"
    },
    {
      "_id": 35114,
      "id_country": 122,
      "id_league": 129,
      "id_season": 114,
      "id_stage": 292,
      "fixture_status": "Finished",
      "fixture_status_short": "FIN",
      "game_ended_at": "2003-06-17T21:45:57.000Z",
      "id_team_season_away": 3077,
      "id_team_season_home": 3080,
      "number_goal_team_away": 2,
      "number_goal_team_home": 2,
      "round": "38",
      "schedule_date": "2000-05-19T20:00:00.000Z",
      "second_half_ended_at": "2003-06-17T22:02:21.000Z",
      "second_half_started_at": "2003-06-17T21:02:21.000Z",
      "stadium": "Camp Nou",
      "team_season_away_name": "Celta Vigo",
      "team_season_home_name": "Barcelona"
    },
    {
      "_id": 35124,
      "id_country": 122,
      "id_league": 129,
      "id_season": 114,
      "id_stage": 292,
      "fixture_status": "Finished",
      "fixture_status_short": "FIN",
      "game_ended_at": "2003-06-17T21:45:57.000Z",
      "id_team_season_away": 3074,
      "id_team_season_home": 3082,
      "number_goal_team_away": 1,
      "number_goal_team_home": 0,
      "round": "38",
      "schedule_date": "2000-05-19T20:00:00.000Z",
      "second_half_ended_at": "2003-06-17T22:02:21.000Z",
      "second_half_started_at": "2003-06-17T21:02:21.000Z",
      "stadium": "Estadio Santiago Bernabeu",
      "team_season_away_name": "Valladolid",
      "team_season_home_name": "Real Madrid"
    },
    {
      "_id": 35161,
      "id_country": 122,
      "id_league": 129,
      "id_season": 114,
      "id_stage": 292,
      "fixture_status": "Finished",
      "fixture_status_short": "FIN",
      "game_ended_at": "2003-06-17T13:40:37.000Z",
      "id_team_season_away": 3084,
      "id_team_season_home": 3079,
      "number_goal_team_away": 1,
      "number_goal_team_home": 3,
      "round": "30",
      "schedule_date": "2000-03-26T18:30:00.000Z",
      "second_half_ended_at": "2003-06-17T14:31:12.000Z",
      "second_half_started_at": "2003-06-17T13:31:12.000Z",
      "stadium": "Estadio Riazor",
      "team_season_away_name": "Real Oviedo",
      "team_season_home_name": "Deportivo La Coruna"
    },
    {
      "_id": 35146,
      "id_country": 122,
      "id_league": 129,
      "id_season": 114,
      "id_stage": 292,
      "fixture_status": "Finished",
      "fixture_status_short": "FIN",
      "game_ended_at": "2003-06-17T14:46:10.000Z",
      "id_team_season_away": 3074,
      "id_team_season_home": 3076,
      "number_goal_team_away": 0,
      "number_goal_team_home": 1,
      "round": "35",
      "schedule_date": "2000-04-30T17:00:00.000Z",
      "second_half_ended_at": "2003-06-17T15:33:47.000Z",
      "second_half_started_at": "2003-06-17T14:33:47.000Z",
      "team_season_away_name": "Valladolid",
      "team_season_home_name": "Alaves"
    },
    {
      "_id": 35145,
      "id_country": 122,
      "id_league": 129,
      "id_season": 114,
      "id_stage": 292,
      "fixture_status": "Finished",
      "fixture_status_short": "FIN",
      "game_ended_at": "2003-06-17T21:53:15.000Z",
      "id_team_season_away": 3084,
      "id_team_season_home": 3083,
      "number_goal_team_away": 2,
      "number_goal_team_home": 1,
      "round": "37",
      "schedule_date": "2000-05-14T17:00:00.000Z",
      "second_half_ended_at": "2003-06-17T22:37:24.000Z",
      "second_half_started_at": "2003-06-17T21:37:24.000Z",
      "team_season_away_name": "Real Oviedo",
      "team_season_home_name": "Rayo Vallecano"
    },
    {
      "_id": 35184,
      "id_country": 122,
      "id_league": 129,
      "id_season": 114,
      "id_stage": 292,
      "fixture_status": "Finished",
      "fixture_status_short": "FIN",
      "game_ended_at": "2003-06-17T12:52:16.000Z",
      "id_team_season_away": 3084,
      "id_team_season_home": 3070,
      "number_goal_team_away": 1,
      "number_goal_team_home": 1,
      "round": "28",
      "schedule_date": "2000-03-12T16:00:00.000Z",
      "second_half_ended_at": "2003-06-17T13:46:42.000Z",
      "second_half_started_at": "2003-06-17T12:46:42.000Z",
      "stadium": "Estadio Los Pajaritos",
      "team_season_away_name": "Real Oviedo",
      "team_season_home_name": "Numancia"
    },
    {
      "_id": 35138,
      "id_country": 122,
      "id_league": 129,
      "id_season": 114,
      "id_stage": 292,
      "fixture_status": "Finished",
      "fixture_status_short": "FIN",
      "game_ended_at": "2003-06-17T15:36:44.000Z",
      "id_team_season_away": 3085,
      "id_team_season_home": 3079,
      "number_goal_team_away": 0,
      "number_goal_team_home": 2,
      "round": "34",
      "schedule_date": "2000-04-23T17:30:00.000Z",
      "second_half_ended_at": "2003-06-17T16:26:31.000Z",
      "second_half_started_at": "2003-06-17T15:26:31.000Z",
      "stadium": "Estadio Riazor",
      "team_season_away_name": "Real Sociedad",
      "team_season_home_name": "Deportivo La Coruna"
    },
    {
      "_id": 35159,
      "id_country": 122,
      "id_league": 129,
      "id_season": 114,
      "id_stage": 292,
      "fixture_status": "Finished",
      "fixture_status_short": "FIN",
      "game_ended_at": "2003-06-17T15:23:00.000Z",
      "id_team_season_away": 3083,
      "id_team_season_home": 3087,
      "number_goal_team_away": 0,
      "number_goal_team_home": 2,
      "round": "34",
      "schedule_date": "2000-04-22T17:00:00.000Z",
      "second_half_ended_at": "2003-06-17T15:56:22.000Z",
      "second_half_started_at": "2003-06-17T14:56:22.000Z",
      "stadium": "Estadio La Rosaleda",
      "team_season_away_name": "Rayo Vallecano",
      "team_season_home_name": "Malaga"
    },
    {
      "_id": 35164,
      "id_country": 122,
      "id_league": 129,
      "id_season": 114,
      "id_stage": 292,
      "fixture_status": "Finished",
      "fixture_status_short": "FIN",
      "game_ended_at": "2003-06-17T14:46:10.000Z",
      "id_team_season_away": 3070,
      "id_team_season_home": 3078,
      "number_goal_team_away": 1,
      "number_goal_team_home": 1,
      "round": "35",
      "schedule_date": "2000-04-30T17:00:00.000Z",
      "second_half_ended_at": "2003-06-17T15:33:51.000Z",
      "second_half_started_at": "2003-06-17T14:33:51.000Z",
      "stadium": "Estadio El Sardinero",
      "team_season_away_name": "Numancia",
      "team_season_home_name": "Racing Santander"
    },
    {
      "_id": 35115,
      "id_country": 122,
      "id_league": 129,
      "id_season": 114,
      "id_stage": 292,
      "fixture_status": "Finished",
      "fixture_status_short": "FIN",
      "game_ended_at": "2003-06-17T21:53:18.000Z",
      "id_team_season_away": 3079,
      "id_team_season_home": 3078,
      "number_goal_team_away": 0,
      "number_goal_team_home": 0,
      "round": "37",
      "schedule_date": "2000-05-14T17:00:00.000Z",
      "second_half_started_at": "2003-06-17T21:37:24.000Z",
      "stadium": "Estadio El Sardinero",
      "team_season_away_name": "Deportivo La Coruna",
      "team_season_home_name": "Racing Santander"
    },
    {
      "_id": 35123,
      "id_country": 122,
      "id_league": 129,
      "id_season": 114,
      "id_stage": 292,
      "fixture_status": "Finished",
      "fixture_status_short": "FIN",
      "game_ended_at": "2003-06-17T21:53:18.000Z",
      "id_team_season_away": 3087,
      "id_team_season_home": 3086,
      "number_goal_team_away": 2,
      "number_goal_team_home": 3,
      "round": "37",
      "schedule_date": "2000-05-14T17:00:00.000Z",
      "second_half_ended_at": "2003-06-17T22:37:24.000Z",
      "second_half_started_at": "2003-06-17T21:37:24.000Z",
      "stadium": "Estadio la Romareda",
      "team_season_away_name": "Malaga",
      "team_season_home_name": "Zaragoza"
    },
    {
      "_id": 35110,
      "id_country": 122,
      "id_league": 129,
      "id_season": 114,
      "id_stage": 292,
      "fixture_status": "Finished",
      "fixture_status_short": "FIN",
      "game_ended_at": "2003-06-17T21:53:16.000Z",
      "id_team_season_away": 3080,
      "id_team_season_home": 3085,
      "number_goal_team_away": 0,
      "number_goal_team_home": 0,
      "round": "37",
      "schedule_date": "2000-05-14T17:00:00.000Z",
      "second_half_started_at": "2003-06-17T21:37:24.000Z",
      "stadium": "Estadio Anoeta",
      "team_season_away_name": "Barcelona",
      "team_season_home_name": "Real Sociedad"
    },
    {
      "_id": 35187,
      "id_country": 122,
      "id_league": 129,
      "id_season": 114,
      "id_stage": 292,
      "fixture_status": "Finished",
      "fixture_status_short": "FIN",
      "game_ended_at": "2003-06-17T14:13:20.000Z",
      "id_team_season_away": 3074,
      "id_team_season_home": 3077,
      "number_goal_team_away": 1,
      "number_goal_team_home": 1,
      "round": "31",
      "schedule_date": "2000-04-02T17:00:00.000Z",
      "second_half_ended_at": "2003-06-17T15:07:14.000Z",
      "second_half_started_at": "2003-06-17T14:07:14.000Z",
      "team_season_away_name": "Valladolid",
      "team_season_home_name": "Celta Vigo"
    },
    {
      "_id": 35126,
      "id_country": 122,
      "id_league": 129,
      "id_season": 114,
      "id_stage": 292,
      "fixture_status": "Finished",
      "fixture_status_short": "FIN",
      "game_ended_at": "2003-06-17T14:46:10.000Z",
      "id_team_season_away": 3071,
      "id_team_season_home": 3088,
      "number_goal_team_away": 0,
      "number_goal_team_home": 4,
      "round": "35",
      "schedule_date": "2000-04-30T18:00:00.000Z",
      "second_half_ended_at": "2003-06-17T15:33:55.000Z",
      "second_half_started_at": "2003-06-17T14:33:55.000Z",
      "stadium": "Iberostar Estadio",
      "team_season_away_name": "Real Betis",
      "team_season_home_name": "Mallorca"
    }
  ],
  "pagination": {
    "total": 380,
    "limit": 30,
    "page": 1,
    "pages": 13
  }
}